A crash course on gravity models
…
glance(fit)

## # A tibble: 1 x 11
##   r.squared adj.r.squared sigma statistic p.value    df  logLik    AIC
##       <dbl>         <dbl> <dbl>     <dbl>   <dbl> <int>   <dbl>  <dbl>
## 1     0.254         0.254  2.32     1455.       0     4 -38611. 77232.
## # … with 3 more variables: BIC <dbl>, deviance <dbl>, df.residual <int>

augment(fit)

## # A tibble: 17,088 x 12
##    y_log_ddm dist_log_ddm rta_ddm comcur_ddm contig_ddm  .fitted .se.fit
##        <dbl>        <dbl>   <dbl>      <dbl>      <dbl>    <dbl>   <dbl>
##  1  -0.710         0.540   0.0175    0.0562    -0.0435  -0.885   0.0205 
##  2   0.00279      -0.0201  0.0318    0.0501    -0.00474  0.0616  0.00754
##  3  -0.373         0.154  -0.197    -0.00870   -0.0502  -0.456   0.0126 
##  4  -3.85         -0.758  -0.0408    0.0562    -0.0533   1.14    0.0298 
##  5   0.301         0.223  -0.191    -0.00705   -0.0237  -0.534   0.0111 
##  6  -3.45          0.599  -0.0747   -0.0747    -0.0762  -1.11    0.0176 
##  7   1.80         -0.861   0.0562    0.0562    -0.0152   1.42    0.0276 
##  8  -1.43         -0.0245 -0.127     0.0562    -0.0319  -0.0845  0.0135 
##  9   3.10         -0.0260 -0.0195    0.0562    -0.0426  -0.00683 0.0104 
## 10  -3.88          0.622  -0.0227    0.0562    -0.0486  -1.05    0.0217 
## # … with 17,078 more rows, and 5 more variables: .resid <dbl>, .hat <dbl>,
## #   .sigma <dbl>, .cooksd <dbl>, .std.resid <dbl>
…
